{
	"info": {
		"_postman_id": "3886c313-ed56-4ce1-b549-ceb9d83c5ca3",
		"name": "New Tool",
		"schema": "https://schema.getpostman.com/json/collection/v2.1.0/collection.json"
	},
	"item": [
		{
			"name": "adding a tool",
			"event": [
				{
					"listen": "test",
					"script": {
						"id": "5a9597db-8303-4b89-9692-bbdfb2c1daef",
						"exec": [
							"pm.test(\"Status code is 200\", function () {",
							"    pm.response.to.have.status(200);",
							"});",
							"pm.environment.get(\"name\");",
							"",
							"pm.test(\"Body matches string\", function () {",
							"    pm.expect(pm.response.text()).to.include(\"name\");",
							"});"
						],
						"type": "text/javascript"
					}
				}
			],
			"request": {
				"method": "POST",
				"header": [
					{
						"key": "accept",
						"value": "text/html,application/xhtml+xml,application/xml;q=0.9,image/webp,image/apng,*/*;q=0.8",
						"disabled": true
					},
					{
						"key": "accept-encoding",
						"value": "gzip, deflate",
						"disabled": true
					},
					{
						"key": "accept-language",
						"value": "en-GB,en-US;q=0.9,en;q=0.8",
						"disabled": true
					},
					{
						"key": "cache-control",
						"value": "max-age=0",
						"disabled": true
					},
					{
						"key": "content-length",
						"value": "78",
						"disabled": true
					},
					{
						"key": "content-type",
						"value": "application/x-www-form-urlencoded"
					},
					{
						"key": "cookie",
						"value": "__tawkuuid=e::safebear.co.uk::rNe+dUOZdyZpWu2WZ45C0ZKM9U8SBzD8oDdvC5Kb7Xos18VdWewiMM4XgmdRxOqA::2; JSESSIONID=F9BF07A37B98117AD697886BA5D2B0C5",
						"disabled": true
					},
					{
						"key": "host",
						"value": "toolslist.safebear.co.uk:8080",
						"disabled": true
					},
					{
						"key": "origin",
						"value": "http://toolslist.safebear.co.uk:8080",
						"disabled": true
					},
					{
						"key": "proxy-connection",
						"value": "keep-alive",
						"disabled": true
					},
					{
						"key": "referer",
						"value": "http://toolslist.safebear.co.uk:8080/jsp/new-tool.jsp?",
						"disabled": true
					},
					{
						"key": "upgrade-insecure-requests",
						"value": "1",
						"disabled": true
					},
					{
						"key": "user-agent",
						"value": "Mozilla/5.0 (Windows NT 10.0; Win64; x64) AppleWebKit/537.36 (KHTML, like Gecko) Chrome/72.0.3626.109 Safari/537.36",
						"disabled": true
					}
				],
				"body": {
					"mode": "raw",
					"raw": "action=add&idTool=&name={{name}}&use={{use}}&website={{website}}"
				},
				"url": {
					"raw": "http://toolslist.safebear.co.uk:8080/tools",
					"protocol": "http",
					"host": [
						"toolslist",
						"safebear",
						"co",
						"uk"
					],
					"port": "8080",
					"path": [
						"tools"
					]
				},
				"description": "url to add a new tool to the tools list"
			},
			"response": []
		}
	]
}